40 -160 -56 712
992
992
88 -24 -32 24 -64 152 -72 -8 -56 -72 -160 152
48 -56 128 -80 -80 32 -64 -64 -48 -40 272
-80 24 -112 -96 -232 -24 -32 336
-64 -40 -8 -184 -72 -56 -56 -32 -24 384
-40 -32 72 -24 -80 -32 -16 -32 -96 496
480 -40 -16 -24 -32 -40 -24 -8 264
96 -40 -32 -152 -104 -64 -64 -32 -80 256
